<?xml version="1.0" encoding="UTF-8"?>
<session version="1.0">
<refactoring comment="Rename package &apos;com.cjc&apos; to &apos;com.cjc.main&apos;&#x0D;&#x0A;- Original project: &apos;Oct21_WebService&apos;&#x0D;&#x0A;- Original element: &apos;Oct21_WebService/src/main/java/com.cjc&apos;&#x0D;&#x0A;- Renamed element: &apos;Oct21_WebService/src/main/java/com.cjc.main&apos;&#x0D;&#x0A;- Update references to refactored element&#x0D;&#x0A;- Update textual occurrences in comments and strings" description="Rename package &apos;com.cjc&apos;" flags="589830" hierarchical="false" id="org.eclipse.jdt.ui.rename.package" input="/src\/main\/java=/optional=/true=/=/maven.pomderived=/true=/&lt;com.cjc" name="com.cjc.main" qualified="false" references="true" stamp="1697864900324" textual="false" version="1.0"/>
</session>