<?xml version="1.0" encoding="UTF-8"?>
<session version="1.0">
<refactoring comment="Rename package &apos;com.bank&apos; to &apos;com.bank.main&apos;&#x0D;&#x0A;- Original project: &apos;Bank_All_CRUD_APP&apos;&#x0D;&#x0A;- Original element: &apos;Bank_All_CRUD_APP/src/main/java/com.bank&apos;&#x0D;&#x0A;- Renamed element: &apos;Bank_All_CRUD_APP/src/main/java/com.bank.main&apos;&#x0D;&#x0A;- Update references to refactored element&#x0D;&#x0A;- Update textual occurrences in comments and strings" description="Rename package &apos;com.bank&apos;" flags="589830" hierarchical="false" id="org.eclipse.jdt.ui.rename.package" input="/src\/main\/java=/optional=/true=/=/maven.pomderived=/true=/&lt;com.bank" name="com.bank.main" qualified="false" references="true" stamp="1697812280126" textual="false" version="1.0"/>
</session>