127.0.0.1 - - [15/Oct/2023:21:52:30 +0530] "GET / HTTP/1.1" 404 994
0:0:0:0:0:0:0:1 - - [15/Oct/2023:21:52:34 +0530] "GET /springmvc_CRUD_app/ HTTP/1.1" 200 348
0:0:0:0:0:0:0:1 - - [15/Oct/2023:21:52:35 +0530] "GET /favicon.ico HTTP/1.1" 404 1016
0:0:0:0:0:0:0:1 - - [15/Oct/2023:21:52:48 +0530] "GET /springmvc_CRUD_app/login?username=ADMIN&password=ADMIN HTTP/1.1" 200 724
0:0:0:0:0:0:0:1 - - [15/Oct/2023:21:53:46 +0530] "GET /springmvc_CRUD_app/openRegpage HTTP/1.1" 200 429
0:0:0:0:0:0:0:1 - - [15/Oct/2023:21:54:25 +0530] "GET /springmvc_CRUD_app/save?sid=98&sname=bandu&username=pandu&password=khandu HTTP/1.1" 200 348
0:0:0:0:0:0:0:1 - - [15/Oct/2023:21:54:35 +0530] "GET /springmvc_CRUD_app/login?username=pandu&password=khandu HTTP/1.1" 200 429
0:0:0:0:0:0:0:1 - - [15/Oct/2023:21:54:45 +0530] "GET /springmvc_CRUD_app/edit?sid=98 HTTP/1.1" 200 474
0:0:0:0:0:0:0:1 - - [15/Oct/2023:21:55:07 +0530] "GET /springmvc_CRUD_app/update?sid=98&sname=sunny+leone&username=sunny&password=leone HTTP/1.1" 200 348
0:0:0:0:0:0:0:1 - - [15/Oct/2023:21:55:16 +0530] "GET /springmvc_CRUD_app/login?username=ADMIN&password=ADMIN HTTP/1.1" 200 883
0:0:0:0:0:0:0:1 - - [15/Oct/2023:21:55:30 +0530] "GET /springmvc_CRUD_app/delete?sid=98 HTTP/1.1" 200 724
0:0:0:0:0:0:0:1 - - [15/Oct/2023:22:01:44 +0530] "GET /springmvc_CRUD_app/update?sid=98&sname=sunny+leone&username=sunny&password=leone HTTP/1.1" 500 9888
0:0:0:0:0:0:0:1 - - [15/Oct/2023:22:01:56 +0530] "GET /springmvc_CRUD_app/ HTTP/1.1" 200 348
0:0:0:0:0:0:0:1 - - [15/Oct/2023:22:03:44 +0530] "GET /springmvc_CRUD_app/ HTTP/1.1" 200 348
0:0:0:0:0:0:0:1 - - [15/Oct/2023:22:03:45 +0530] "GET /springmvc_CRUD_app/openRegpage HTTP/1.1" 200 429
0:0:0:0:0:0:0:1 - - [15/Oct/2023:22:04:15 +0530] "GET /springmvc_CRUD_app/save?sid=201&sname=Shubham&username=shubham&password=s123 HTTP/1.1" 200 348
0:0:0:0:0:0:0:1 - - [15/Oct/2023:22:18:42 +0530] "GET /springmvc_CRUD_app/login?username=ADMIN&password=ADMIN HTTP/1.1" 200 883
