127.0.0.1 - - [14/Dec/2023:17:14:53 +0530] "GET / HTTP/1.1" 404 994
0:0:0:0:0:0:0:1 - - [14/Dec/2023:17:14:57 +0530] "GET /springmvc_CRUD_app/ HTTP/1.1" 200 348
0:0:0:0:0:0:0:1 - - [14/Dec/2023:17:14:57 +0530] "GET /favicon.ico HTTP/1.1" 404 1016
0:0:0:0:0:0:0:1 - - [14/Dec/2023:17:15:22 +0530] "GET /springmvc_CRUD_app/login?username=ADMIN&password=ADMIN HTTP/1.1" 200 883
0:0:0:0:0:0:0:1 - - [14/Dec/2023:17:15:24 +0530] "GET /springmvc_CRUD_app/edit?sid=4 HTTP/1.1" 200 473
0:0:0:0:0:0:0:1 - - [14/Dec/2023:17:15:30 +0530] "GET /springmvc_CRUD_app/update?sid=4&sname=Prasad&username=prasad&password=p1234 HTTP/1.1" 200 348
