127.0.0.1 - - [13/Oct/2023:12:38:31 +0530] "GET / HTTP/1.1" 404 994
127.0.0.1 - - [13/Oct/2023:12:39:33 +0530] "GET / HTTP/1.1" 404 994
0:0:0:0:0:0:0:1 - - [13/Oct/2023:12:39:37 +0530] "GET /Employee_Bank_O2O_CRUD/ HTTP/1.1" 200 348
0:0:0:0:0:0:0:1 - - [13/Oct/2023:12:39:40 +0530] "GET /Employee_Bank_O2O_CRUD/openRegpage HTTP/1.1" 200 714
0:0:0:0:0:0:0:1 - - [13/Oct/2023:12:48:09 +0530] "GET /Employee_Bank_O2O_CRUD/openRegpage HTTP/1.1" 200 733
0:0:0:0:0:0:0:1 - - [13/Oct/2023:12:48:47 +0530] "GET /Employee_Bank_O2O_CRUD/save?empId=101&empName=Mayur&empPost=SDE&empMobNo=7620425264&bank.accNo=45265&bank.bankName=SBI&bank.branchName=Pune&bank.ifscCode=5223647 HTTP/1.1" 200 733
0:0:0:0:0:0:0:1 - - [13/Oct/2023:12:56:14 +0530] "GET /Employee_Bank_O2O_CRUD/login?username=asd&password=123 HTTP/1.1" 404 992
127.0.0.1 - - [13/Oct/2023:21:44:06 +0530] "GET / HTTP/1.1" 404 994
0:0:0:0:0:0:0:1 - - [13/Oct/2023:21:44:10 +0530] "GET /springmvc_CRUD_app/ HTTP/1.1" 200 348
0:0:0:0:0:0:0:1 - - [13/Oct/2023:21:44:10 +0530] "GET /favicon.ico HTTP/1.1" 404 1016
0:0:0:0:0:0:0:1 - - [13/Oct/2023:21:44:13 +0530] "GET /springmvc_CRUD_app/openRegpage HTTP/1.1" 200 429
0:0:0:0:0:0:0:1 - - [13/Oct/2023:21:44:26 +0530] "GET /springmvc_CRUD_app/login?username=ADMIN&password=ADMIN HTTP/1.1" 200 724
0:0:0:0:0:0:0:1 - - [13/Oct/2023:21:44:31 +0530] "GET /springmvc_CRUD_app/openRegpage HTTP/1.1" 200 429
0:0:0:0:0:0:0:1 - - [13/Oct/2023:21:44:45 +0530] "GET /springmvc_CRUD_app/save?sid=4&sname=Prasad&username=prasad&password=p123 HTTP/1.1" 200 348
0:0:0:0:0:0:0:1 - - [13/Oct/2023:21:44:53 +0530] "GET /springmvc_CRUD_app/login?username=ADMIN&password=ADMIN HTTP/1.1" 200 875
0:0:0:0:0:0:0:1 - - [13/Oct/2023:21:44:59 +0530] "GET /springmvc_CRUD_app/delete?sid=3 HTTP/1.1" 200 724
0:0:0:0:0:0:0:1 - - [13/Oct/2023:21:45:06 +0530] "GET /springmvc_CRUD_app/edit?sid=4 HTTP/1.1" 200 473
0:0:0:0:0:0:0:1 - - [13/Oct/2023:21:45:18 +0530] "GET /springmvc_CRUD_app/update?sid=4&sname=Prasad+Hatte&username=prasad&password=p123 HTTP/1.1" 200 348
0:0:0:0:0:0:0:1 - - [13/Oct/2023:21:45:24 +0530] "GET /springmvc_CRUD_app/login?username=ADMIN&password=ADMIN HTTP/1.1" 200 730
0:0:0:0:0:0:0:1 - - [13/Oct/2023:21:45:47 +0530] "GET /springmvc_CRUD_app/login?username=prasad&password=p123 HTTP/1.1" 200 432
0:0:0:0:0:0:0:1 - - [13/Oct/2023:21:45:58 +0530] "GET /springmvc_CRUD_app/login?username=prasa&password=p123 HTTP/1.1" 200 348
0:0:0:0:0:0:0:1 - - [13/Oct/2023:21:45:59 +0530] "GET /springmvc_CRUD_app/login?username=&password= HTTP/1.1" 200 348
127.0.0.1 - - [13/Oct/2023:22:01:51 +0530] "GET / HTTP/1.1" 404 994
0:0:0:0:0:0:0:1 - - [13/Oct/2023:22:01:55 +0530] "GET /Employee_Bank_O2O_CRUD/ HTTP/1.1" 200 348
0:0:0:0:0:0:0:1 - - [13/Oct/2023:22:02:09 +0530] "GET /Employee_Bank_O2O_CRUD/login?username=ADMIN&password=ADMIN HTTP/1.1" 404 992
0:0:0:0:0:0:0:1 - - [13/Oct/2023:22:02:53 +0530] "GET /Employee_Bank_O2O_CRUD/ HTTP/1.1" 200 348
0:0:0:0:0:0:0:1 - - [13/Oct/2023:22:03:02 +0530] "GET /Employee_Bank_O2O_CRUD/login?username=ADMIN&password=ADMIN HTTP/1.1" 200 609
0:0:0:0:0:0:0:1 - - [13/Oct/2023:22:04:19 +0530] "GET /Employee_Bank_O2O_CRUD/openRegpage HTTP/1.1" 200 851
0:0:0:0:0:0:0:1 - - [13/Oct/2023:22:05:11 +0530] "GET /Employee_Bank_O2O_CRUD/save?empId=102&empName=Prasad&empPost=Java+Developer&empMobNo=8756942314&username=prasad&password=p123&bank.accNo=8569423&bank.bankName=HDFC&bank.branchName=KarveNagar&bank.ifscCode=86954723 HTTP/1.1" 200 851
0:0:0:0:0:0:0:1 - - [13/Oct/2023:22:05:17 +0530] "GET /Employee_Bank_O2O_CRUD/login?username=ADMIN&password=ADMIN HTTP/1.1" 200 879
0:0:0:0:0:0:0:1 - - [13/Oct/2023:22:16:37 +0530] "GET /Employee_Bank_O2O_CRUD/ HTTP/1.1" 200 348
0:0:0:0:0:0:0:1 - - [13/Oct/2023:22:16:46 +0530] "GET /Employee_Bank_O2O_CRUD/login?username=ADMIN&password=ADMIN HTTP/1.1" 200 879
0:0:0:0:0:0:0:1 - - [13/Oct/2023:22:16:50 +0530] "GET /Employee_Bank_O2O_CRUD/delete?sid= HTTP/1.1" 404 992
0:0:0:0:0:0:0:1 - - [13/Oct/2023:22:17:43 +0530] "GET /Employee_Bank_O2O_CRUD/login?username=ADMIN&password=ADMIN HTTP/1.1" 200 879
0:0:0:0:0:0:0:1 - - [13/Oct/2023:22:17:46 +0530] "GET /Employee_Bank_O2O_CRUD/delete?sid= HTTP/1.1" 400 1101
0:0:0:0:0:0:0:1 - - [13/Oct/2023:22:18:02 +0530] "GET /springmvc_CRUD_app/login?username=ADMIN&password=ADMIN HTTP/1.1" 404 1042
0:0:0:0:0:0:0:1 - - [13/Oct/2023:22:18:16 +0530] "GET /springmvc_CRUD_app/login?username=prasa&password=p123 HTTP/1.1" 404 1042
0:0:0:0:0:0:0:1 - - [13/Oct/2023:22:18:18 +0530] "GET /springmvc_CRUD_app/update?sid=4&sname=Prasad+Hatte&username=prasad&password=p123 HTTP/1.1" 404 1044
127.0.0.1 - - [13/Oct/2023:22:18:34 +0530] "GET / HTTP/1.1" 404 994
0:0:0:0:0:0:0:1 - - [13/Oct/2023:22:18:38 +0530] "GET /Employee_Bank_O2O_CRUD/ HTTP/1.1" 200 348
127.0.0.1 - - [13/Oct/2023:22:19:29 +0530] "GET / HTTP/1.1" 404 994
0:0:0:0:0:0:0:1 - - [13/Oct/2023:22:19:33 +0530] "GET /Employee_Bank_O2O_CRUD/ HTTP/1.1" 200 348
0:0:0:0:0:0:0:1 - - [13/Oct/2023:22:19:42 +0530] "GET /Employee_Bank_O2O_CRUD/login?username=ADMIN&password=ADMIN HTTP/1.1" 200 879
0:0:0:0:0:0:0:1 - - [13/Oct/2023:22:19:44 +0530] "GET /Employee_Bank_O2O_CRUD/delete?sid= HTTP/1.1" 400 1101
127.0.0.1 - - [13/Oct/2023:22:26:26 +0530] "GET / HTTP/1.1" 404 994
0:0:0:0:0:0:0:1 - - [13/Oct/2023:22:26:30 +0530] "GET /Employee_Bank_O2O_CRUD/ HTTP/1.1" 200 348
0:0:0:0:0:0:0:1 - - [13/Oct/2023:22:26:37 +0530] "GET /Employee_Bank_O2O_CRUD/login?username=ADMIN&password=ADMIN HTTP/1.1" 200 879
0:0:0:0:0:0:0:1 - - [13/Oct/2023:22:26:40 +0530] "GET /Employee_Bank_O2O_CRUD/delete?sid= HTTP/1.1" 400 1101
0:0:0:0:0:0:0:1 - - [13/Oct/2023:22:28:23 +0530] "GET /Employee_Bank_O2O_CRUD/login?username=ADMIN&password=ADMIN HTTP/1.1" 200 879
0:0:0:0:0:0:0:1 - - [13/Oct/2023:22:28:25 +0530] "GET /Employee_Bank_O2O_CRUD/delete?sid= HTTP/1.1" 400 1101
0:0:0:0:0:0:0:1 - - [13/Oct/2023:22:29:39 +0530] "GET /Employee_Bank_O2O_CRUD/delete?sid= HTTP/1.1" 400 1101
0:0:0:0:0:0:0:1 - - [13/Oct/2023:22:29:43 +0530] "GET /Employee_Bank_O2O_CRUD/login?username=ADMIN&password=ADMIN HTTP/1.1" 200 891
0:0:0:0:0:0:0:1 - - [13/Oct/2023:22:29:46 +0530] "GET /Employee_Bank_O2O_CRUD/delete?sid=101 HTTP/1.1" 400 1101
0:0:0:0:0:0:0:1 - - [13/Oct/2023:22:30:24 +0530] "GET /Employee_Bank_O2O_CRUD/login?username=ADMIN&password=ADMIN HTTP/1.1" 200 899
0:0:0:0:0:0:0:1 - - [13/Oct/2023:22:30:26 +0530] "GET /Employee_Bank_O2O_CRUD/delete?empId=101 HTTP/1.1" 400 1101
127.0.0.1 - - [13/Oct/2023:22:32:08 +0530] "GET / HTTP/1.1" 404 994
0:0:0:0:0:0:0:1 - - [13/Oct/2023:22:32:12 +0530] "GET /Employee_Bank_O2O_CRUD/ HTTP/1.1" 200 348
0:0:0:0:0:0:0:1 - - [13/Oct/2023:22:32:19 +0530] "GET /Employee_Bank_O2O_CRUD/login?username=ADMIN&password=ADMIN HTTP/1.1" 200 899
0:0:0:0:0:0:0:1 - - [13/Oct/2023:22:32:22 +0530] "GET /Employee_Bank_O2O_CRUD/delete?empId=101 HTTP/1.1" 200 651
0:0:0:0:0:0:0:1 - - [13/Oct/2023:22:35:47 +0530] "GET /Employee_Bank_O2O_CRUD/delete?empId=101 HTTP/1.1" 400 1101
127.0.0.1 - - [13/Oct/2023:22:36:05 +0530] "GET / HTTP/1.1" 404 994
0:0:0:0:0:0:0:1 - - [13/Oct/2023:22:36:09 +0530] "GET /Employee_Bank_O2O_CRUD/ HTTP/1.1" 200 348
0:0:0:0:0:0:0:1 - - [13/Oct/2023:22:36:17 +0530] "GET /Employee_Bank_O2O_CRUD/openRegpage HTTP/1.1" 200 851
0:0:0:0:0:0:0:1 - - [13/Oct/2023:22:37:02 +0530] "GET /Employee_Bank_O2O_CRUD/save?empId=101&empName=Mayur&empPost=SDE&empMobNo=7620425264&username=mayur&password=m123&bank.accNo=54815875&bank.bankName=SBI&bank.branchName=Pune&bank.ifscCode=5861681 HTTP/1.1" 200 851
0:0:0:0:0:0:0:1 - - [13/Oct/2023:22:37:16 +0530] "GET /Employee_Bank_O2O_CRUD/login?username=ADMIN&password=ADMIN HTTP/1.1" 200 661
0:0:0:0:0:0:0:1 - - [13/Oct/2023:22:37:34 +0530] "GET /Employee_Bank_O2O_CRUD/delete?empId=101?accNo=54815875 HTTP/1.1" 400 1011
0:0:0:0:0:0:0:1 - - [13/Oct/2023:22:38:33 +0530] "GET /Employee_Bank_O2O_CRUD/ HTTP/1.1" 200 348
0:0:0:0:0:0:0:1 - - [13/Oct/2023:22:38:40 +0530] "GET /Employee_Bank_O2O_CRUD/login?username=ADMIN&password=ADMIN HTTP/1.1" 200 659
0:0:0:0:0:0:0:1 - - [13/Oct/2023:22:38:43 +0530] "GET /Employee_Bank_O2O_CRUD/delete?empId=101accNo=54815875 HTTP/1.1" 400 1011
0:0:0:0:0:0:0:1 - - [13/Oct/2023:22:45:26 +0530] "GET /Employee_Bank_O2O_CRUD/ HTTP/1.1" 200 348
0:0:0:0:0:0:0:1 - - [13/Oct/2023:22:45:34 +0530] "GET /Employee_Bank_O2O_CRUD/login?username=ADMIN&password=ADMIN HTTP/1.1" 200 659
0:0:0:0:0:0:0:1 - - [13/Oct/2023:22:46:47 +0530] "GET /Employee_Bank_O2O_CRUD/login?username=ADMIN&password=ADMIN HTTP/1.1" 200 662
0:0:0:0:0:0:0:1 - - [13/Oct/2023:22:46:49 +0530] "GET /Employee_Bank_O2O_CRUD/delete?empId=101%20&%20accNo=54815875 HTTP/1.1" 400 1101
