<?xml version="1.0" encoding="UTF-8"?>
<session version="1.0">
<refactoring comment="Copy 4 elements to &apos;webapp&apos;&#x0D;&#x0A;- Original project: &apos;SpringBoot_CRUD_Oct19&apos;&#x0D;&#x0A;- Destination element: &apos;webapp&apos;&#x0D;&#x0A;- Original elements:&#x0D;&#x0A;     edit.jsp&#x0D;&#x0A;     login.jsp&#x0D;&#x0A;     success.jsp&#x0D;&#x0A;     register.jsp" description="Copy files" element1="src/main/webapp/edit.jsp" element2="src/main/webapp/login.jsp" element3="src/main/webapp/success.jsp" element4="src/main/webapp/register.jsp" files="4" flags="589830" folders="0" id="org.eclipse.jdt.ui.copy" policy="org.eclipse.jdt.ui.copyResources" stamp="1698399164594" target="/Employee_Boot_CRUD/src/main/webapp" units="0" version="1.0"/>
</session>